module xmldownloader

go 1.18

require (
	gorm.io/driver/mysql v1.3.5
	gorm.io/gorm v1.23.8
)

require (
	github.com/go-sql-driver/mysql v1.6.0 // indirect
	github.com/jinzhu/inflection v1.0.0 // indirect
	github.com/jinzhu/now v1.1.5 // indirect
)
